{
	"id": "998eeb8b-4fbc-43e7-b3d7-644a585c8208",
	"name": "PCMT Mediator Example",
	"values": [
		{
			"key": "openhim-uri",
			"value": "https://openhim-url",
			"type": "default",
			"enabled": true
		},
		{
			"key": "basic-auth-username",
			"value": "basic auth username",
			"type": "default",
			"enabled": true
		},
		{
			"key": "basic-auth-password",
			"value": "basic auth password",
			"type": "default",
			"enabled": true
		}
	],
	"_postman_variable_scope": "environment",
	"_postman_exported_at": "2022-09-16T21:02:10.695Z",
	"_postman_exported_using": "Postman/9.29.4"
}